{
  "project_info": {
    "project_number": "328226452029",
    "firebase_url": "https://nextdoor-fb691.firebaseio.com",
    "project_id": "nextdoor-fb691",
    "storage_bucket": "nextdoor-fb691.appspot.com"
  },
  "client": [
    {
      "client_info": {
        "mobilesdk_app_id": "1:328226452029:android:508d2f59dc11f086",
        "android_client_info": {
          "package_name": "com.gdg.truecaller.nextdoor"
        }
      },
      "oauth_client": [
        {
          "client_id": "328226452029-c32lm3q5bgacf6uod97qm3o8ok0jmii3.apps.googleusercontent.com",
          "client_type": 1,
          "android_info": {
            "package_name": "com.gdg.truecaller.nextdoor",
            "certificate_hash": "4af9598547742325f042d643d9f1a1b265035a34"
          }
        },
        {
          "client_id": "328226452029-kcnbs0kl3sj8t8bv2h59h4qpal6rnfsj.apps.googleusercontent.com",
          "client_type": 3
        }
      ],
      "api_key": [
        {
          "current_key": "AIzaSyBPF07FpKp8abhKxAFoa4YHi2bkcNEvG5s"
        }
      ],
      "services": {
        "analytics_service": {
          "status": 1
        },
        "appinvite_service": {
          "status": 2,
          "other_platform_oauth_client": [
            {
              "client_id": "328226452029-kcnbs0kl3sj8t8bv2h59h4qpal6rnfsj.apps.googleusercontent.com",
              "client_type": 3
            }
          ]
        },
        "ads_service": {
          "status": 2
        }
      }
    },
    {
      "client_info": {
        "mobilesdk_app_id": "1:328226452029:android:8c55bfc4e59d3990",
        "android_client_info": {
          "package_name": "com.gdg.truecaller.nextdoor.HomeActivity"
        }
      },
      "oauth_client": [
        {
          "client_id": "328226452029-0ehukrd41c8v5a2utqv9kehfdlnmkdmu.apps.googleusercontent.com",
          "client_type": 1,
          "android_info": {
            "package_name": "com.gdg.truecaller.nextdoor.HomeActivity",
            "certificate_hash": "7bab73dfc77d3a2009a944bcf321643b2fbb2436"
          }
        },
        {
          "client_id": "328226452029-kcnbs0kl3sj8t8bv2h59h4qpal6rnfsj.apps.googleusercontent.com",
          "client_type": 3
        }
      ],
      "api_key": [
        {
          "current_key": "AIzaSyBPF07FpKp8abhKxAFoa4YHi2bkcNEvG5s"
        }
      ],
      "services": {
        "analytics_service": {
          "status": 1
        },
        "appinvite_service": {
          "status": 2,
          "other_platform_oauth_client": [
            {
              "client_id": "328226452029-kcnbs0kl3sj8t8bv2h59h4qpal6rnfsj.apps.googleusercontent.com",
              "client_type": 3
            }
          ]
        },
        "ads_service": {
          "status": 2
        }
      }
    }
  ],
  "configuration_version": "1"
}